googleAnalyticsR v1.0.0 - GA4 API, Automatic Shiny Dashboarding, Improved UI · Mark Edmondson
…
## ℹ 2021-05-01 14:14:54 > Caching new meta data

# last year
last_year <- c("2020-01-01","2021-01-01")

# I want to cross reference first user source and last user source
ga_data(my_id, 
        metrics = "sessions",
        date_range = last_year,
        dimensions = c("firstUserMedium","sessionMedium"))

## ℹ 2021-05-01 14:14:56 > Downloaded [ 29 ] of total [ 29 ] rows

## # A tibble: 29 x 3
##    firstUserMedium sessionMedium sessions
##    <chr>           <chr>            <dbl>
##  1 organic         organic          17557
##  2 (none)          (none)            5750
##  3 referral        referral          3982
##  4 organic         referral          1165
##  5 (none)          referral           951
##  6 (none)          organic            656
##  7 referral        organic            362
##  8 email           email              246
##  9 organic         (not set)          148
## 10 (none)          (not set)          127
## # … with 19 more rows

# what about only users from twitter? First check the sources
ga_data(my_id, 
        metrics = NULL, # to only return unique dimensions
        date_range = last_year,
        dimensions = "firstUserSource")

## ℹ 2021-05-01 14:14:57 > Downloaded [ 100 ] of total [ 193 ] rows

## # A tibble: 100 x 1
##    firstUserSource
##    <chr>          
##  1 (direct)       
##  2 127.0.0.1:17923
##  3 127.0.0.1:19409
##  4 127.0.0.1:20644
##  5 127.0.0.1:21594
##  6 127.0.0.1:23734
##  7 127.0.0.1:23960
##  8 127.0.0.1:25447
##  9 127.0.0.1:25537
## 10 127.0.0.1:28513
## # … with 90 more rows

# oh dear lots of ip address - lets filter those out
ip_filter <- ga_data_filter(!firstUserSource %begins% "127.0.0.1")
ga_data(
  my_id, 
  metrics = NULL,
  date_range = last_year,
  dimensions = "firstUserSource", 
  dim_filters = ip_filter, # apply filter
  limit = -1) # all results

## ℹ 2021-05-01 14:14:58 > Downloaded [ 167 ] of total [ 167 ] rows

## # A tibble: 167 x 1
##    firstUserSource        
##    <chr>                  
##  1 (direct)               
##  2 185.199.111.153:6080   
##  3 34.66.89.215           
##  4 ActiveCampaign         
##  5 ConversionWorksBlog    
##  6 Data_Elixir_222        
##  7 Iterable               
##  8 aboutdata.atlassian.net
##  9 adelachrist.top        
## 10 affecheafe             
## # … with 157 more rows
…
# and change the metrics/dimensions
ga_data(
  my_id, 
  metrics = c("engagementRate","activeUsers"),
  date_range = last_year,
  dimensions = 
    c("unifiedScreenName",
      lastMediumSource = "sessionMedium/sessionSource"), #dynamic dimension
  dim_filters = ga_data_filter(twit & me & nottwit), # combine filters
  orderBys = ga_data_order(-activeUsers) # order by activeUsers metric
  )

## ℹ 2021-05-01 14:15:01 > Downloaded [ 40 ] of total [ 40 ] rows

## # A tibble: 40 x 4
##    unifiedScreenName                 lastMediumSource engagementRate activeUsers
##    <chr>                             <chr>                     <dbl>       <dbl>
##  1 Mark Edmondson                    organic/google              1             6
##  2 Welcome to bigQueryR              organic/google              0.5           5
##  3 Launch RStudio Server in the Goo… organic/google              0.5           4
##  4 Google Tag Manager Server Side o… organic/google              0.4           4
##  5 Introducing googleCloudRunner - … organic/google              0.4           4
##  6 Shiny on Google Cloud Run - Scal… (none)/(direct)             1             3
##  7 Five Ways to Schedule R scripts … organic/google              0.8           3
##  8 BigQuery Queries                  organic/google              0             3
##  9 Google Tag Manager Server Side o… (none)/(direct)             1             2
## 10 Turning GA360 BigQuery exports i… organic/google              1             2
## # … with 30 more rows
…
